{
    "KPlugin": {
        "Authors": [
            {
                "Email": "albertvaka@gmail.com",
                "Name": "Albert Vaca Cintora",
                "Name[ar]": "ألبرت فاكا سينتورا",
                "Name[az]": "Albert Vaca Cintora",
                "Name[bg]": "Albert Vaca Cintora",
                "Name[ca@valencia]": "Albert Vaca Cintora",
                "Name[ca]": "Albert Vaca Cintora",
                "Name[cs]": "Albert Vaca Cintora",
                "Name[de]": "Albert Vaca Cintora",
                "Name[en_GB]": "Albert Vaca Cintora",
                "Name[es]": "Albert Vaca Cintora",
                "Name[fi]": "Albert Vaca Cintora",
                "Name[fr]": "Albert Vaca Cintora",
                "Name[gl]": "Albert Vaca Cintora",
                "Name[ia]": "Albert Vaca Cintora",
                "Name[it]": "Albert Vaca Cintora",
                "Name[ka]": "Albert Vaca Cintora",
                "Name[ko]": "Albert Vaca Cintora",
                "Name[nl]": "Albert Vaca Cintora",
                "Name[nn]": "Albert Vaca Cintora",
                "Name[pl]": "Albert Vaca Cintora",
                "Name[pt]": "Albert Vaca Cintora",
                "Name[pt_BR]": "Albert Vaca Cintora",
                "Name[sl]": "Albert Vaca Cintora",
                "Name[tr]": "Albert Vaca Cintora",
                "Name[uk]": "Albert Vaca Cintora",
                "Name[x-test]": "xxAlbert Vaca Cintoraxx",
                "Name[zh_CN]": "Albert Vaca Cintora"
            }
        ],
        "Category": "System Information",
        "Description": "Show notifications from your devices using KDE Connect",
        "Description[ca@valencia]": "Mostra les notificacions dels vostres dispositius emprant KDE Connect",
        "Description[ca]": "Mostra les notificacions dels vostres dispositius emprant el KDE Connect",
        "Description[ia]": "Monstra notificationes ex tu dispositivos usante KDE Connect",
        "Description[it]": "Mostra le notifiche dei tuoi dispositivi tramite KDE Connect",
        "Description[ka]": "KDE Connect-ის გამოყენებით თქვენი მოწყობილობებიდან გაფრთხილებების ჩვენება",
        "Description[nl]": "Meldingen van uw apparaten met KDE Connect tonen",
        "Description[pt_BR]": "Mostrar notificações dos seus dispositivos usando o KDE Connect",
        "Description[sl]": "Pošljite obvestila iz drugih naprav s pomočjo KDE Connect",
        "Description[tr]": "KDE Bağlan'ı kullanarak aygıtınızdan gelen bildirimleri gösterin",
        "Description[uk]": "Показ сповіщень з ваших пристроїв за допомогою програми «З’єднання KDE»",
        "Description[x-test]": "xxShow notifications from your devices using KDE Connectxx",
        "EnabledByDefault": true,
        "Icon": "kdeconnect",
        "Id": "org.kde.kdeconnect",
        "License": "GPL",
        "Name": "KDE Connect",
        "Name[ar]": "كِيدِي المتّصل",
        "Name[az]": "KDE Connect",
        "Name[bg]": "KDE Connect",
        "Name[ca@valencia]": "KDE Connect",
        "Name[ca]": "KDE Connect",
        "Name[cs]": "KDE Connect",
        "Name[de]": "KDE Connect",
        "Name[en_GB]": "KDE Connect",
        "Name[es]": "KDE Connect",
        "Name[eu]": "KDE Connect",
        "Name[fi]": "KDE Connect",
        "Name[fr]": "KDE Connect",
        "Name[gl]": "KDE Connect",
        "Name[ia]": "KDE Connect",
        "Name[is]": "KDE Connect",
        "Name[it]": "KDE Connect",
        "Name[ka]": "KDE Connect",
        "Name[ko]": "KDE Connect",
        "Name[lt]": "KDE Connect",
        "Name[nl]": "KDE Connect",
        "Name[nn]": "KDE Connect",
        "Name[pl]": "KDE Connect",
        "Name[pt]": "KDE Connect",
        "Name[pt_BR]": "KDE Connect",
        "Name[ru]": "KDE Connect",
        "Name[sl]": "KDE Connect",
        "Name[tr]": "KDE Bağlan",
        "Name[uk]": "KDE Connect",
        "Name[x-test]": "xxKDE Connectxx",
        "Name[zh_CN]": "KDE Connect",
        "Name[zh_TW]": "KDE 連線",
        "ServiceTypes": [
            "Plasma/Applet"
        ],
        "Version": "0.1",
        "Website": "https://albertvaka.wordpress.com"
    },
    "X-Plasma-API": "declarativeappletscript",
    "X-Plasma-ConfigPlugins": [
        "kcm_kdeconnect"
    ],
    "X-Plasma-MainScript": "ui/main.qml",
    "X-Plasma-NotificationArea": "true",
    "X-Plasma-NotificationAreaCategory": "Hardware"
}
